Pro/CNN___/doc/iladata.vcd
$date
        2025-May-05 15:48:07
$end
$version
        Vivado v2019.2 (64-bit)
$end
$timescale
        1ps
$end
$scope module dut $end
$var reg 16 " ddr_test_wr_data [15:0] $end
$var reg 16 2 ddr_test_wr_cnt [15:0] $end
$var reg 1 B ddr_test_wr_data_valid $end
$var reg 1 C ddr_wr_test_busy_flag $end
$var reg 1 D ddr_wr_test_end_flag $end
$var reg 1 E ddr_wr_test_start_flag $end
$var reg 1 F _TRIGGER $end
$var reg 1 G _WINDOW $end
$var reg 1 H _GAP $end
$upscope $end
$enddefinitions $end
#0
$dumpvars
b0 "
b0 2
0B
0C
0D
0E
0F
1G
0H
$end
#1024
1E
1F
#1025
1B
1C
0E
#1026
b1 "
b1 2
#1027
b10 "
b10 2
#1028
b11 "
b11 2
#1029
b100 "
b100 2
#1030
b101 "
b101 2
#1031
b110 "
b110 2
#1032
b111 "
b111 2
#1033
b1000 "
b1000 2
#1034
b1001 "
b1001 2
#1035
b1010 "
b1010 2
#1036
b1011 "
b1011 2
#1037
b1100 "
b1100 2
#1038
b1101 "
b1101 2
#1039
b1110 "
b1110 2
#1040
b1111 "
b1111 2
#1041
b10000 "
b10000 2
#1042
b10001 "
b10001 2
#1043
b10010 "
b10010 2
#1044
b10011 "
b10011 2
#1045
b10100 "
b10100 2
#1046
b10101 "
b10101 2
#1047
b10110 "
b10110 2
#1048
b10111 "
b10111 2
#1049
b11000 "
b11000 2
#1050
b11001 "
b11001 2
#1051
b11010 "
b11010 2
#1052
b11011 "
b11011 2
#1053
b11100 "
b11100 2
#1054
b11101 "
b11101 2
#1055
b11110 "
b11110 2
#1056
b11111 "
b11111 2
#1057
b100000 "
b100000 2
#1058
b100001 "
b100001 2
#1059
b100010 "
b100010 2
#1060
b100011 "
b100011 2
#1061
b100100 "
b100100 2
#1062
b100101 "
b100101 2
#1063
b100110 "
b100110 2
#1064
b100111 "
b100111 2
#1065
b101000 "
b101000 2
#1066
b101001 "
b101001 2
#1067
b101010 "
b101010 2
#1068
b101011 "
b101011 2
#1069
b101100 "
b101100 2
#1070
b101101 "
b101101 2
#1071
b101110 "
b101110 2
#1072
b101111 "
b101111 2
#1073
b110000 "
b110000 2
#1074
b110001 "
b110001 2
#1075
b110010 "
b110010 2
#1076
b110011 "
b110011 2
#1077
b110100 "
b110100 2
#1078
b110101 "
b110101 2
#1079
b110110 "
b110110 2
#1080
b110111 "
b110111 2
#1081
b111000 "
b111000 2
#1082
b111001 "
b111001 2
#1083
b111010 "
b111010 2
#1084
b111011 "
b111011 2
#1085
b111100 "
b111100 2
#1086
b111101 "
b111101 2
#1087
b111110 "
b111110 2
#1088
b111111 "
b111111 2
#1089
b1000000 "
b1000000 2
#1090
b1000001 "
b1000001 2
#1091
b1000010 "
b1000010 2
#1092
b1000011 "
b1000011 2
#1093
b1000100 "
b1000100 2
#1094
b1000101 "
b1000101 2
#1095
b1000110 "
b1000110 2
#1096
b1000111 "
b1000111 2
#1097
b1001000 "
b1001000 2
#1098
b1001001 "
b1001001 2
#1099
b1001010 "
b1001010 2
#1100
b1001011 "
b1001011 2
#1101
b1001100 "
b1001100 2
#1102
b1001101 "
b1001101 2
#1103
b1001110 "
b1001110 2
#1104
b1001111 "
b1001111 2
#1105
b1010000 "
b1010000 2
#1106
b1010001 "
b1010001 2
#1107
b1010010 "
b1010010 2
#1108
b1010011 "
b1010011 2
#1109
b1010100 "
b1010100 2
#1110
b1010101 "
b1010101 2
#1111
b1010110 "
b1010110 2
#1112
b1010111 "
b1010111 2
#1113
b1011000 "
b1011000 2
#1114
b1011001 "
b1011001 2
#1115
b1011010 "
b1011010 2
#1116
b1011011 "
b1011011 2
#1117
b1011100 "
b1011100 2
#1118
b1011101 "
b1011101 2
#1119
b1011110 "
b1011110 2
#1120
b1011111 "
b1011111 2
#1121
b1100000 "
b1100000 2
#1122
b1100001 "
b1100001 2
#1123
b1100010 "
b1100010 2
#1124
b1100011 "
b1100011 2
1D
#1125
b0 "
b0 2
0B
0C
0D
